<?xml version="1.0" encoding="UTF-8" standalone="no"?>
<!-- Created with Inkscape (http://www.inkscape.org/) -->

<svg
   xmlns:dc="http://purl.org/dc/elements/1.1/"
   xmlns:cc="http://creativecommons.org/ns#"
   xmlns:rdf="http://www.w3.org/1999/02/22-rdf-syntax-ns#"
   xmlns:svg="http://www.w3.org/2000/svg"
   xmlns="http://www.w3.org/2000/svg"
   xmlns:sodipodi="http://sodipodi.sourceforge.net/DTD/sodipodi-0.dtd"
   xmlns:inkscape="http://www.inkscape.org/namespaces/inkscape"
   width="267.70267"
   height="105.77177"
   viewBox="0 0 70.829662 27.985449"
   version="1.1"
   id="svg1247"
   inkscape:version="0.92.4 (5da689c313, 2019-01-14)"
   sodipodi:docname="arabesco_fundo.svg">
  <defs
     id="defs1241" />
  <sodipodi:namedview
     id="base"
     pagecolor="#ffffff"
     bordercolor="#666666"
     borderopacity="1.0"
     inkscape:pageopacity="0.0"
     inkscape:pageshadow="2"
     inkscape:zoom="0.7328125"
     inkscape:cx="-74.762743"
     inkscape:cy="-163.57463"
     inkscape:document-units="mm"
     inkscape:current-layer="layer1"
     showgrid="false"
     units="px"
     fit-margin-top="5"
     fit-margin-left="5"
     fit-margin-right="5"
     fit-margin-bottom="5"
     inkscape:pagecheckerboard="true"
     inkscape:window-width="1366"
     inkscape:window-height="713"
     inkscape:window-x="0"
     inkscape:window-y="0"
     inkscape:window-maximized="1" />
  <metadata
     id="metadata1244">
    <rdf:RDF>
      <cc:Work
         rdf:about="">
        <dc:format>image/svg+xml</dc:format>
        <dc:type
           rdf:resource="http://purl.org/dc/dcmitype/StillImage" />
        <dc:title></dc:title>
      </cc:Work>
    </rdf:RDF>
  </metadata>
  <g
     inkscape:label="Camada 1"
     inkscape:groupmode="layer"
     id="layer1"
     transform="translate(-9.7166545,-77.568756)">
    <g
       transform="matrix(0.35277777,0,0,-0.35277777,-187.31215,270.98058)"
       id="g1226"
       style="fill:#000000;fill-opacity:1;stroke:none;stroke-opacity:1">
      <path
         d="m 744.356,498.604 c 0,-0.294 -0.126,-0.42 -0.419,-0.42 -0.252,0 -0.421,0.126 -0.421,0.42 0,0.294 0.169,0.42 0.421,0.42 0.293,0 0.419,-0.126 0.419,-0.42 z m -18.478,26.205 c 0,-0.295 -0.126,-0.42 -0.42,-0.42 -0.293,0 -0.419,0.125 -0.419,0.42 0,0.294 0.126,0.42 0.419,0.42 0.294,0 0.42,-0.126 0.42,-0.42 z m -54.382,-25.282 c -0.254,0.63 -0.505,1.345 -0.631,2.142 -0.168,0.756 -0.294,1.554 -0.42,2.31 -0.084,0.798 -0.21,1.596 -0.377,2.352 -0.168,0.714 -0.38,1.386 -0.672,1.932 -0.378,0.755 -0.84,1.343 -1.471,1.805 -0.587,0.42 -1.258,0.798 -1.931,1.092 -0.714,0.253 -1.429,0.504 -2.141,0.672 -0.757,0.21 -1.386,0.42 -2.017,0.714 -0.084,-1.512 0.169,-2.982 0.715,-4.452 0.545,-1.469 1.302,-2.813 2.224,-4.073 0.925,-1.217 2.017,-2.268 3.192,-3.065 1.219,-0.84 2.394,-1.302 3.529,-1.429 z m 31.033,-14.95 c -0.672,-0.167 -1.386,-0.293 -2.099,-0.377 -0.756,-0.042 -1.428,-0.042 -2.058,0.126 -0.631,0.126 -1.176,0.378 -1.596,0.798 -0.463,0.377 -0.714,0.965 -0.756,1.721 -0.042,0.421 0.042,0.756 0.251,1.051 0.211,0.251 0.463,0.503 0.757,0.671 0.336,0.21 0.671,0.336 1.05,0.42 0.42,0.042 0.798,0.084 1.175,0.042 0.126,0.63 0,1.176 -0.419,1.679 -0.42,0.463 -1.009,0.799 -1.806,1.05 0.378,0.421 0.545,0.883 0.503,1.429 0,0.545 -0.167,1.008 -0.461,1.469 -0.252,0.421 -0.63,0.756 -1.092,1.008 -0.503,0.253 -1.007,0.253 -1.554,0.085 -1.638,-0.672 -2.856,-1.471 -3.611,-2.394 -0.756,-0.925 -1.218,-2.142 -1.386,-3.654 -0.084,-0.924 0.126,-1.847 0.588,-2.772 0.463,-0.882 1.091,-1.721 1.89,-2.519 0.797,-0.757 1.722,-1.387 2.813,-1.89 1.05,-0.462 2.184,-0.756 3.36,-0.798 1.049,0 2.016,0.294 2.813,0.84 0.84,0.545 1.386,1.217 1.638,2.015 z m -24.146,38.762 c -0.672,-0.042 -1.345,-0.126 -2.058,-0.295 -0.757,-0.126 -1.47,-0.251 -2.268,-0.377 -0.755,-0.126 -1.512,-0.21 -2.309,-0.294 -0.757,-0.042 -1.513,-0.042 -2.185,0.042 0.295,0.378 0.588,0.713 0.798,0.966 0.21,0.252 0.252,0.672 0.084,1.301 -0.924,0.253 -1.805,0.211 -2.645,-0.168 -0.84,-0.377 -1.68,-0.798 -2.478,-1.343 -0.84,-0.546 -1.637,-1.05 -2.478,-1.512 -0.839,-0.462 -1.763,-0.672 -2.772,-0.546 0.252,-0.42 0.799,-0.798 1.722,-1.092 0.883,-0.336 1.933,-0.546 3.191,-0.713 1.26,-0.169 2.647,-0.211 4.075,-0.169 1.427,0.042 2.813,0.211 4.074,0.504 1.259,0.336 2.35,0.756 3.359,1.386 0.965,0.588 1.596,1.386 1.89,2.31 z m 30.908,-16.252 c 0.042,1.133 -0.21,2.142 -0.673,3.023 -0.504,0.882 -1.176,1.638 -1.973,2.268 -0.797,0.63 -1.722,1.134 -2.772,1.47 -1.007,0.336 -2.016,0.546 -3.023,0.588 -0.798,0.042 -1.555,-0.042 -2.31,-0.294 -0.715,-0.21 -1.428,-0.546 -2.058,-0.966 -0.63,-0.42 -1.133,-0.924 -1.553,-1.512 -0.379,-0.588 -0.589,-1.218 -0.631,-1.932 -0.126,-1.385 0.084,-2.603 0.546,-3.653 0.463,-1.05 1.05,-1.848 1.722,-2.393 0.672,-0.547 1.301,-0.798 1.932,-0.84 0.672,-0.042 1.091,0.251 1.302,0.882 0.252,0.377 0.672,0.629 1.259,0.713 0.546,0.126 1.176,0.168 1.891,0.126 0.671,-0.042 1.3,-0.168 1.889,-0.378 0.588,-0.21 1.009,-0.461 1.261,-0.756 0.126,1.134 -0.126,1.89 -0.673,2.31 -0.588,0.42 -1.219,0.714 -2.016,0.84 -0.757,0.168 -1.512,0.252 -2.224,0.252 -0.715,0.042 -1.219,0.168 -1.513,0.377 -0.337,0.295 -0.463,0.631 -0.337,1.008 0.084,0.421 0.296,0.756 0.673,1.092 0.336,0.336 0.756,0.588 1.261,0.798 0.544,0.21 1.048,0.336 1.637,0.336 0.461,0 0.881,-0.21 1.3,-0.587 0.422,-0.421 0.883,-0.841 1.345,-1.26 0.463,-0.463 1.008,-0.84 1.595,-1.177 0.589,-0.335 1.302,-0.419 2.143,-0.335 z m 33.763,14.656 c 0.126,2.813 -0.126,5.627 -0.755,8.315 -0.631,2.73 -1.638,5.123 -3.024,7.307 -1.344,2.141 -3.15,3.864 -5.293,5.165 -2.182,1.302 -4.787,1.974 -7.767,1.974 -0.966,0 -1.891,-0.168 -2.772,-0.462 -0.84,-0.294 -1.595,-0.756 -2.226,-1.301 -0.63,-0.547 -1.133,-1.219 -1.554,-1.974 -0.378,-0.714 -0.588,-1.554 -0.588,-2.436 -0.042,-1.806 0.504,-3.359 1.68,-4.578 1.177,-1.175 2.73,-1.847 4.62,-1.931 0.335,0.042 0.587,0.21 0.797,0.461 0.169,0.295 0.295,0.589 0.295,0.924 0.042,0.336 -0.042,0.63 -0.168,0.967 -0.127,0.293 -0.337,0.503 -0.631,0.671 -1.302,0.127 -2.015,0.714 -2.183,1.722 0.042,0.336 0.21,0.672 0.461,1.008 0.252,0.294 0.588,0.588 0.967,0.84 0.336,0.293 0.755,0.461 1.217,0.588 0.421,0.126 0.883,0.126 1.302,0.084 2.352,-0.084 4.536,-0.798 6.424,-2.142 1.934,-1.386 3.446,-3.066 4.579,-5.081 1.091,-2.058 1.721,-4.284 1.889,-6.761 0.127,-2.478 -0.378,-4.914 -1.47,-7.308 -0.587,1.05 -1.3,2.058 -2.225,3.108 -0.923,1.008 -1.932,1.931 -3.024,2.771 -1.09,0.84 -2.225,1.555 -3.443,2.142 -1.219,0.588 -2.436,0.924 -3.653,1.008 -0.883,0.126 -1.807,0.126 -2.814,0 -0.966,-0.084 -1.889,-0.294 -2.73,-0.672 -0.839,-0.378 -1.554,-0.923 -2.184,-1.596 -0.631,-0.672 -1.05,-1.512 -1.176,-2.561 0.757,0.042 1.47,-0.042 2.225,-0.294 0.715,-0.252 1.387,-0.546 2.06,-0.84 0.629,-0.336 1.301,-0.63 1.972,-0.924 0.714,-0.294 1.387,-0.462 2.1,-0.503 0.589,-0.084 1.26,-0.042 1.975,0.083 0.713,0.126 1.469,0.21 2.267,0.252 0.757,0.042 1.512,0 2.225,-0.126 0.715,-0.084 1.385,-0.419 2.016,-0.882 0.63,-0.504 1.177,-1.26 1.638,-2.267 0.42,-1.008 0.756,-2.352 0.924,-4.032 0.169,-1.512 -0.042,-3.066 -0.63,-4.619 -0.545,-1.512 -1.428,-2.982 -2.604,-4.368 -1.218,-1.385 -2.645,-2.603 -4.326,-3.695 -1.678,-1.051 -3.569,-1.932 -5.669,-2.562 -2.477,-0.756 -5.248,-1.092 -8.356,-0.966 -3.066,0.126 -6.215,0.588 -9.448,1.344 -3.234,0.756 -6.385,1.847 -9.577,3.234 -3.149,1.343 -6.003,2.94 -8.566,4.787 -2.099,1.428 -4.284,2.856 -6.551,4.283 -2.268,1.386 -4.619,2.646 -7.097,3.822 -2.477,1.134 -5.039,2.099 -7.686,2.856 -2.644,0.755 -5.333,1.217 -8.146,1.343 0,-0.209 -0.042,-0.588 -0.084,-1.05 -0.042,-0.503 -0.084,-0.84 -0.084,-1.05 5.418,-0.756 10.499,-2.309 15.203,-4.619 4.661,-2.268 9.028,-4.913 12.975,-7.895 2.563,-1.932 5.46,-3.611 8.694,-4.997 3.233,-1.428 6.508,-2.561 9.91,-3.317 3.401,-0.756 6.761,-1.177 10.078,-1.261 3.359,-0.084 6.384,0.294 9.155,1.092 2.94,0.84 5.544,2.1 7.854,3.822 2.268,1.679 4.199,3.737 5.795,6.089 1.595,2.352 2.814,4.997 3.695,7.895 0.841,2.898 1.344,5.922 1.512,9.113 z m 8.735,-25.575 c -1.008,0.546 -2.015,1.176 -3.023,1.932 -1.008,0.714 -2.059,1.343 -3.15,1.89 -1.051,0.504 -2.184,0.882 -3.317,1.049 -1.135,0.211 -2.353,0.084 -3.654,-0.335 -1.469,-0.463 -2.729,-1.05 -3.822,-1.764 -1.05,-0.756 -2.015,-1.764 -2.939,-3.065 1.008,-0.463 2.056,-0.84 3.191,-1.135 1.176,-0.252 2.269,-0.587 3.36,-0.924 1.133,-0.378 2.1,-0.797 3.023,-1.386 0.925,-0.545 1.596,-1.343 2.017,-2.351 0.294,-0.84 0.42,-1.722 0.252,-2.562 -0.126,-0.84 -0.337,-1.68 -0.673,-2.519 -0.294,-0.882 -0.629,-1.722 -1.007,-2.562 -0.379,-0.84 -0.631,-1.68 -0.757,-2.478 1.009,0.672 1.974,1.428 2.898,2.268 0.924,0.839 1.68,1.722 2.267,2.73 0.631,0.965 1.009,2.015 1.219,3.149 0.167,1.134 0.084,2.268 -0.294,3.485 -0.126,0.337 -0.378,0.673 -0.673,1.009 -0.294,0.294 -0.588,0.629 -0.881,0.965 -0.336,0.336 -0.588,0.631 -0.757,0.924 -0.168,0.252 -0.168,0.547 0,0.84 0.169,0.294 0.547,0.463 1.05,0.463 0.504,0 1.093,-0.042 1.764,-0.084 0.631,-0.085 1.303,-0.127 2.017,-0.127 0.713,0 1.342,0.211 1.889,0.588 z m 2.815,-7.433 c -0.799,1.596 -1.933,2.981 -3.362,4.158 -1.468,1.175 -3.021,1.847 -4.703,1.931 1.26,-1.344 2.311,-2.855 3.065,-4.535 0.799,-1.638 1.429,-3.36 1.808,-5.123 0.377,-1.806 0.629,-3.57 0.755,-5.418 0.084,-1.806 0.084,-3.569 0.042,-5.249 0.629,0.84 1.176,1.848 1.722,3.023 0.546,1.176 0.966,2.394 1.217,3.654 0.294,1.302 0.42,2.603 0.378,3.906 -0.084,1.302 -0.378,2.519 -0.922,3.653"
         style="fill:#000000;fill-opacity:1;fill-rule:nonzero;stroke:none;stroke-width:0.1;stroke-opacity:1"
         id="path58"
         inkscape:connector-curvature="0" />
      <path
         d="m 573.396,498.604 c 0,-0.294 0.125,-0.42 0.419,-0.42 0.293,0 0.421,0.126 0.421,0.42 0,0.294 -0.128,0.42 -0.421,0.42 -0.294,0 -0.419,-0.126 -0.419,-0.42 z m 18.477,26.205 c 0,-0.295 0.168,-0.42 0.42,-0.42 0.294,0 0.42,0.125 0.42,0.42 0,0.294 -0.126,0.42 -0.42,0.42 -0.252,0 -0.42,-0.126 -0.42,-0.42 z m 54.383,-25.282 c 0.295,0.63 0.505,1.345 0.673,2.142 0.168,0.756 0.293,1.554 0.377,2.31 0.084,0.798 0.21,1.596 0.378,2.352 0.169,0.714 0.379,1.386 0.672,1.932 0.378,0.755 0.881,1.343 1.47,1.805 0.588,0.42 1.26,0.798 1.974,1.092 0.671,0.253 1.386,0.504 2.14,0.672 0.715,0.21 1.387,0.42 1.976,0.714 0.084,-1.512 -0.126,-2.982 -0.715,-4.452 -0.546,-1.469 -1.303,-2.813 -2.225,-4.073 -0.924,-1.217 -2.015,-2.268 -3.192,-3.065 -1.176,-0.84 -2.352,-1.302 -3.528,-1.429 z m -31.033,-14.95 c 0.713,-0.167 1.427,-0.293 2.141,-0.377 0.714,-0.042 1.386,-0.042 2.015,0.126 0.631,0.126 1.177,0.378 1.596,0.798 0.463,0.377 0.714,0.965 0.756,1.721 0.042,0.421 -0.042,0.756 -0.251,1.051 -0.209,0.251 -0.463,0.503 -0.756,0.671 -0.294,0.21 -0.672,0.336 -1.049,0.42 -0.421,0.042 -0.799,0.084 -1.177,0.042 -0.126,0.63 0,1.176 0.42,1.679 0.419,0.463 1.05,0.799 1.848,1.05 -0.378,0.421 -0.546,0.883 -0.546,1.429 0.042,0.545 0.168,1.008 0.462,1.469 0.293,0.421 0.672,0.756 1.133,1.008 0.462,0.253 0.967,0.253 1.512,0.085 1.638,-0.672 2.857,-1.471 3.611,-2.394 0.799,-0.925 1.218,-2.142 1.386,-3.654 0.084,-0.924 -0.084,-1.847 -0.587,-2.772 -0.463,-0.882 -1.092,-1.721 -1.889,-2.519 -0.757,-0.757 -1.723,-1.387 -2.772,-1.89 -1.093,-0.462 -2.226,-0.756 -3.359,-0.798 -1.093,0 -2.018,0.294 -2.857,0.84 -0.798,0.545 -1.343,1.217 -1.637,2.015 z m 24.146,38.762 c 0.673,-0.042 1.344,-0.126 2.1,-0.295 0.714,-0.126 1.469,-0.251 2.226,-0.377 0.755,-0.126 1.554,-0.21 2.309,-0.294 0.757,-0.042 1.512,-0.042 2.226,0.042 -0.335,0.378 -0.63,0.713 -0.84,0.966 -0.21,0.252 -0.21,0.672 -0.084,1.301 0.924,0.253 1.805,0.211 2.646,-0.168 0.839,-0.377 1.68,-0.798 2.519,-1.343 0.799,-0.546 1.637,-1.05 2.478,-1.512 0.841,-0.462 1.722,-0.672 2.731,-0.546 -0.252,-0.42 -0.799,-0.798 -1.68,-1.092 -0.883,-0.336 -1.976,-0.546 -3.234,-0.713 -1.26,-0.169 -2.604,-0.211 -4.074,-0.169 -1.428,0.042 -2.772,0.211 -4.031,0.504 -1.302,0.336 -2.394,0.756 -3.402,1.386 -0.965,0.588 -1.596,1.386 -1.89,2.31 z m -30.866,-16.252 c -0.042,1.133 0.169,2.142 0.673,3.023 0.461,0.882 1.134,1.638 1.93,2.268 0.841,0.63 1.764,1.134 2.773,1.47 1.05,0.336 2.057,0.546 3.023,0.588 0.797,0.042 1.554,-0.042 2.309,-0.294 0.757,-0.21 1.429,-0.546 2.06,-0.966 0.628,-0.42 1.132,-0.924 1.553,-1.512 0.377,-0.588 0.629,-1.218 0.671,-1.932 0.084,-1.385 -0.126,-2.603 -0.587,-3.653 -0.463,-1.05 -1.009,-1.848 -1.679,-2.393 -0.715,-0.547 -1.345,-0.798 -1.975,-0.84 -0.63,-0.042 -1.092,0.251 -1.303,0.882 -0.252,0.377 -0.629,0.629 -1.217,0.713 -0.588,0.126 -1.217,0.168 -1.89,0.126 -0.672,-0.042 -1.301,-0.168 -1.89,-0.378 -0.587,-0.21 -1.049,-0.461 -1.302,-0.756 -0.084,1.134 0.127,1.89 0.673,2.31 0.587,0.42 1.26,0.714 2.015,0.84 0.757,0.168 1.512,0.252 2.226,0.252 0.756,0.042 1.259,0.168 1.512,0.377 0.336,0.295 0.462,0.631 0.378,1.008 -0.126,0.421 -0.335,0.756 -0.673,1.092 -0.377,0.336 -0.797,0.588 -1.301,0.798 -0.504,0.21 -1.049,0.336 -1.595,0.336 -0.505,0 -0.924,-0.21 -1.344,-0.587 -0.421,-0.421 -0.883,-0.841 -1.344,-1.26 -0.463,-0.463 -0.967,-0.84 -1.553,-1.177 -0.589,-0.335 -1.303,-0.419 -2.143,-0.335 z m -33.764,14.656 c -0.168,2.813 0.084,5.627 0.714,8.315 0.631,2.73 1.638,5.123 3.024,7.307 1.385,2.141 3.149,3.864 5.334,5.165 2.141,1.302 4.745,1.974 7.727,1.974 0.965,0 1.89,-0.168 2.771,-0.462 0.84,-0.294 1.595,-0.756 2.226,-1.301 0.629,-0.547 1.176,-1.219 1.554,-1.974 0.378,-0.714 0.587,-1.554 0.587,-2.436 0.042,-1.806 -0.503,-3.359 -1.68,-4.578 -1.176,-1.175 -2.687,-1.847 -4.619,-1.931 -0.336,0.042 -0.587,0.21 -0.755,0.461 -0.21,0.295 -0.296,0.589 -0.337,0.924 0,0.336 0.041,0.63 0.169,0.967 0.168,0.293 0.378,0.503 0.629,0.671 1.345,0.127 2.058,0.714 2.184,1.722 -0.042,0.336 -0.21,0.672 -0.462,1.008 -0.252,0.294 -0.545,0.588 -0.924,0.84 -0.378,0.293 -0.798,0.461 -1.217,0.588 -0.463,0.126 -0.883,0.126 -1.303,0.084 -2.394,-0.084 -4.535,-0.798 -6.466,-2.142 -1.89,-1.386 -3.444,-3.066 -4.536,-5.081 -1.134,-2.058 -1.763,-4.284 -1.889,-6.761 -0.168,-2.478 0.336,-4.914 1.469,-7.308 0.546,1.05 1.301,2.058 2.184,3.108 0.924,1.008 1.931,1.931 3.023,2.771 1.092,0.84 2.267,1.555 3.486,2.142 1.218,0.588 2.394,0.924 3.611,1.008 0.882,0.126 1.849,0.126 2.814,0 0.966,-0.084 1.889,-0.294 2.73,-0.672 0.84,-0.378 1.596,-0.923 2.225,-1.596 0.631,-0.672 1.009,-1.512 1.134,-2.561 -0.755,0.042 -1.47,-0.042 -2.183,-0.294 -0.757,-0.252 -1.428,-0.546 -2.101,-0.84 -0.63,-0.336 -1.3,-0.63 -1.973,-0.924 -0.671,-0.294 -1.386,-0.462 -2.057,-0.503 -0.631,-0.084 -1.303,-0.042 -2.016,0.083 -0.714,0.126 -1.469,0.21 -2.226,0.252 -0.797,0.042 -1.512,0 -2.268,-0.126 -0.715,-0.084 -1.385,-0.419 -2.016,-0.882 -0.629,-0.504 -1.175,-1.26 -1.596,-2.267 -0.462,-1.008 -0.755,-2.352 -0.965,-4.032 -0.126,-1.512 0.084,-3.066 0.629,-4.619 0.547,-1.512 1.429,-2.982 2.647,-4.368 1.175,-1.385 2.602,-2.603 4.284,-3.695 1.679,-1.051 3.568,-1.932 5.668,-2.562 2.478,-0.756 5.292,-1.092 8.356,-0.966 3.066,0.126 6.216,0.588 9.45,1.344 3.234,0.756 6.425,1.847 9.575,3.234 3.15,1.343 6.004,2.94 8.566,4.787 2.1,1.428 4.284,2.856 6.552,4.283 2.268,1.386 4.661,2.646 7.097,3.822 2.477,1.134 5.039,2.099 7.685,2.856 2.644,0.755 5.375,1.217 8.189,1.343 0,-0.209 0,-0.588 0.041,-1.05 0.042,-0.503 0.084,-0.84 0.084,-1.05 -5.416,-0.756 -10.499,-2.309 -15.16,-4.619 -4.703,-2.268 -9.027,-4.913 -13.017,-7.895 -2.563,-1.932 -5.459,-3.611 -8.695,-4.997 -3.191,-1.428 -6.508,-2.561 -9.91,-3.317 -3.359,-0.756 -6.719,-1.177 -10.078,-1.261 -3.317,-0.084 -6.383,0.294 -9.155,1.092 -2.94,0.84 -5.544,2.1 -7.811,3.822 -2.31,1.679 -4.242,3.737 -5.838,6.089 -1.595,2.352 -2.813,4.997 -3.653,7.895 -0.882,2.898 -1.386,5.922 -1.512,9.113 z m -8.777,-25.575 c 1.051,0.546 2.059,1.176 3.065,1.932 1.009,0.714 2.018,1.343 3.109,1.89 1.092,0.504 2.184,0.882 3.317,1.049 1.134,0.211 2.395,0.084 3.696,-0.335 1.428,-0.463 2.687,-1.05 3.779,-1.764 1.051,-0.756 2.057,-1.764 2.94,-3.065 -0.967,-0.463 -2.057,-0.84 -3.191,-1.135 -1.135,-0.252 -2.268,-0.587 -3.36,-0.924 -1.092,-0.378 -2.1,-0.797 -3.024,-1.386 -0.924,-0.545 -1.554,-1.343 -1.973,-2.351 -0.338,-0.84 -0.421,-1.722 -0.296,-2.562 0.128,-0.84 0.38,-1.68 0.673,-2.519 0.294,-0.882 0.63,-1.722 1.009,-2.562 0.378,-0.84 0.629,-1.68 0.755,-2.478 -1.008,0.672 -1.973,1.428 -2.898,2.268 -0.922,0.839 -1.679,1.722 -2.267,2.73 -0.631,0.965 -1.008,2.015 -1.176,3.149 -0.21,1.134 -0.126,2.268 0.252,3.485 0.168,0.337 0.377,0.673 0.673,1.009 0.293,0.294 0.629,0.629 0.923,0.965 0.294,0.336 0.547,0.631 0.715,0.924 0.209,0.252 0.209,0.547 0,0.84 -0.168,0.294 -0.547,0.463 -1.051,0.463 -0.503,0 -1.092,-0.042 -1.722,-0.084 -0.673,-0.085 -1.344,-0.127 -2.057,-0.127 -0.714,0 -1.344,0.211 -1.891,0.588 z m -2.813,-7.433 c 0.797,1.596 1.932,2.981 3.36,4.158 1.47,1.175 3.023,1.847 4.703,1.931 -1.26,-1.344 -2.269,-2.855 -3.066,-4.535 -0.798,-1.638 -1.385,-3.36 -1.805,-5.123 -0.379,-1.806 -0.631,-3.57 -0.715,-5.418 -0.083,-1.806 -0.125,-3.569 -0.083,-5.249 -0.588,0.84 -1.177,1.848 -1.722,3.023 -0.546,1.176 -0.925,2.394 -1.218,3.654 -0.294,1.302 -0.378,2.603 -0.336,3.906 0.042,1.302 0.336,2.519 0.882,3.653"
         style="fill:#000000;fill-opacity:1;fill-rule:nonzero;stroke:none;stroke-width:0.1;stroke-opacity:1"
         id="path60"
         inkscape:connector-curvature="0" />
      <path
         d="m 681.909,494.362 c -0.503,0.42 -0.965,0.882 -1.512,1.26 -3.191,1.932 -6.214,2.31 -9.406,0.672 -1.595,-0.798 -2.982,-1.722 -4.282,-2.939 -0.883,-0.798 -1.724,-1.681 -2.437,-2.521 -1.344,-1.637 -2.436,-3.359 -3.527,-5.165 -0.673,-1.05 -1.261,-2.267 -2.016,-3.317 -0.965,-1.344 -2.058,-2.688 -3.402,-3.738 -0.672,-0.462 -1.345,-0.881 -2.099,-1.092 -1.47,-0.419 -2.814,-0.21 -4.117,0.672 -1.007,0.756 -1.805,1.428 -2.35,2.436 -0.378,0.714 -0.715,1.512 -0.883,1.89 -0.461,1.301 -0.378,2.352 -0.252,3.569 0.084,0.966 0.336,1.68 0.673,2.352 0.546,1.302 1.385,2.226 2.812,2.646 0.126,0 0.295,0 0.337,0.084 0.168,0.042 0.462,0.252 0.378,0.377 -0.252,0.547 -0.967,0.589 -1.176,0.295 -2.225,-1.093 -2.982,-2.478 -3.527,-4.284 -0.589,-2.142 -0.547,-4.073 0.419,-6.257 0.462,-1.05 1.471,-2.771 3.948,-4.325 1.133,-0.63 2.352,-0.84 3.654,-0.756 0.671,0.084 1.343,0.252 1.973,0.629 1.134,0.63 2.269,1.386 3.192,2.395 0.672,0.713 1.301,1.511 1.847,2.393 0.673,0.966 1.26,2.015 1.807,2.939 0.672,1.134 1.427,2.142 2.1,3.234 0.125,0.21 0.251,0.378 0.419,0.588 0.461,0.588 0.84,1.176 1.344,1.764 0.336,0.378 0.755,0.882 1.176,1.302 l 1.848,1.722 c 0.42,0.335 0.796,0.671 1.259,0.924 0.168,0.042 0.294,0.126 0.42,0.251 0.799,0.715 1.764,1.008 2.647,1.387 0.629,0.251 1.217,0.419 1.889,0.377 0.251,0 0.545,0.042 0.839,0.084 0.547,0.042 1.092,-0.084 1.68,-0.126 1.344,-0.251 2.395,-0.966 3.444,-1.764 0.63,-0.462 1.217,-1.05 1.638,-1.679 2.016,-2.898 3.317,-6.09 3.107,-9.618 -0.125,-1.847 -0.504,-3.569 -1.469,-5.123 -1.218,-2.016 -3.024,-3.569 -5.46,-4.073 -2.561,-0.588 -4.787,0.21 -6.677,2.099 -0.461,0.463 -0.713,1.051 -0.925,1.638 -0.377,1.05 -0.587,2.058 -0.461,3.108 l 0.21,1.89 c 0,0.084 -0.042,0.084 -0.084,0.21 -0.504,-0.966 -0.714,-1.932 -0.63,-2.982 0.084,-0.882 0.168,-1.68 0.378,-2.561 0.21,-0.63 0.546,-1.303 1.009,-1.806 1.007,-1.134 2.099,-2.016 3.61,-2.436 1.135,-0.378 2.31,-0.42 3.486,-0.084 0.294,0.084 0.589,0.252 0.883,0.378 0.838,0.336 1.637,0.756 2.434,1.218 0.168,0.042 0.421,0.21 0.589,0.42 0.546,0.63 1.303,0.462 3.149,3.528 0.588,0.882 0.882,2.813 0.924,3.821 0,0.671 -0.294,2.351 -0.252,2.898 0.042,0.209 -0.042,0.545 -0.042,0.797 l -0.588,2.058 c -0.209,0.462 -0.42,0.966 -0.63,1.47 -0.629,1.89 -1.764,3.528 -3.318,4.871"
         style="fill:#000000;fill-opacity:1;fill-rule:nonzero;stroke:none;stroke-width:0.1;stroke-opacity:1"
         id="path62"
         inkscape:connector-curvature="0" />
      <path
         d="m 635.842,494.362 c 0.504,0.42 0.965,0.882 1.512,1.26 3.191,1.932 6.257,2.31 9.449,0.672 1.595,-0.798 2.981,-1.722 4.242,-2.939 0.881,-0.798 1.721,-1.681 2.434,-2.521 1.344,-1.637 2.437,-3.359 3.57,-5.165 0.631,-1.05 1.218,-2.267 1.974,-3.317 0.965,-1.344 2.058,-2.688 3.444,-3.738 0.629,-0.462 1.302,-0.881 2.098,-1.092 1.429,-0.419 2.815,-0.21 4.075,0.672 1.006,0.756 1.805,1.428 2.351,2.436 0.377,0.714 0.757,1.512 0.882,1.89 0.462,1.301 0.378,2.352 0.252,3.569 -0.084,0.966 -0.336,1.68 -0.629,2.352 -0.589,1.302 -1.428,2.226 -2.856,2.646 -0.126,0 -0.251,0 -0.335,0.084 -0.17,0.042 -0.463,0.252 -0.338,0.377 0.254,0.547 0.925,0.589 1.135,0.295 2.266,-1.093 3.023,-2.478 3.527,-4.284 0.589,-2.142 0.547,-4.073 -0.42,-6.257 -0.461,-1.05 -1.47,-2.771 -3.946,-4.325 -1.093,-0.63 -2.353,-0.84 -3.656,-0.756 -0.67,0.084 -1.343,0.252 -1.972,0.629 -1.135,0.63 -2.268,1.386 -3.192,2.395 -0.672,0.713 -1.302,1.511 -1.847,2.393 -0.631,0.966 -1.261,2.015 -1.806,2.939 -0.631,1.134 -1.386,2.142 -2.059,3.234 -0.126,0.21 -0.293,0.378 -0.461,0.588 -0.42,0.588 -0.841,1.176 -1.302,1.764 -0.378,0.378 -0.756,0.882 -1.177,1.302 l -1.89,1.722 c -0.419,0.335 -0.797,0.671 -1.259,0.924 -0.168,0.042 -0.294,0.126 -0.42,0.251 -0.755,0.715 -1.763,1.008 -2.646,1.387 -0.63,0.251 -1.217,0.419 -1.889,0.377 -0.252,0 -0.546,0.042 -0.797,0.084 -0.547,0.042 -1.135,-0.084 -1.722,-0.126 -1.345,-0.251 -2.395,-0.966 -3.445,-1.764 -0.629,-0.462 -1.217,-1.05 -1.596,-1.679 -2.015,-2.898 -3.359,-6.09 -3.149,-9.618 0.126,-1.847 0.504,-3.569 1.469,-5.123 1.219,-2.016 3.025,-3.569 5.502,-4.073 2.52,-0.588 4.746,0.21 6.635,2.099 0.462,0.463 0.715,1.051 0.925,1.638 0.378,1.05 0.63,2.058 0.462,3.108 l -0.168,1.89 c 0,0.084 0.042,0.084 0.084,0.21 0.461,-0.966 0.671,-1.932 0.587,-2.982 -0.084,-0.882 -0.168,-1.68 -0.377,-2.561 -0.21,-0.63 -0.546,-1.303 -1.009,-1.806 -1.007,-1.134 -2.1,-2.016 -3.611,-2.436 -1.134,-0.378 -2.267,-0.42 -3.486,-0.084 -0.293,0.084 -0.589,0.252 -0.882,0.378 -0.797,0.336 -1.595,0.756 -2.435,1.218 -0.168,0.042 -0.379,0.21 -0.547,0.42 -0.587,0.63 -1.301,0.462 -3.191,3.528 -0.545,0.882 -0.881,2.813 -0.881,3.821 -0.042,0.671 0.252,2.351 0.21,2.898 0,0.209 0.042,0.545 0.042,0.797 l 0.587,2.058 c 0.21,0.462 0.462,0.966 0.63,1.47 0.63,1.89 1.764,3.528 3.318,4.871"
         style="fill:#000000;fill-opacity:1;fill-rule:nonzero;stroke:none;stroke-width:0.1;stroke-opacity:1"
         id="path64"
         inkscape:connector-curvature="0" />
    </g>
  </g>
</svg>
